[gd_scene load_steps=3 format=2]

[ext_resource path="res://props/file1.glb" type="PackedScene" id=1]

[sub_resource type="BoxShape" id=1]

[node name="file1" instance=ExtResource( 1 )]

[node name="File1" parent="." index="0"]
transform = Transform( 0.01, 0, 0, 0, 0.00895383, 0, 0, 0, 0.01, -0.0300039, 0, 0 )

[node name="StaticBody" type="StaticBody" parent="." index="1"]

[node name="CollisionShape" type="CollisionShape" parent="StaticBody" index="0"]
transform = Transform( 0.206229, 0, 0, 0, 0.727615, 0, 0, 0, 0.20237, -0.0266553, 0.724701, 0 )
shape = SubResource( 1 )
